{
  "project_info": {
    "project_number": "62606623893",
    "firebase_url": "https://easypark-65a86.firebaseio.com",
    "project_id": "easypark-65a86",
    "storage_bucket": "easypark-65a86.appspot.com"
  },
  "client": [
    {
      "client_info": {
        "mobilesdk_app_id": "1:62606623893:android:d2080c22f865ff9edac79c",
        "android_client_info": {
          "package_name": "com.utn.easypark"
        }
      },
      "oauth_client": [
        {
          "client_id": "62606623893-f1fo0lua6pf8cm14noqc6u6pc3juqpg4.apps.googleusercontent.com",
          "client_type": 3
        }
      ],
      "api_key": [
        {
          "current_key": "AIzaSyCRqY3izcA0Cqx9P1BW3iaTck0-UmW3QiA"
        }
      ],
      "services": {
        "appinvite_service": {
          "other_platform_oauth_client": [
            {
              "client_id": "62606623893-f1fo0lua6pf8cm14noqc6u6pc3juqpg4.apps.googleusercontent.com",
              "client_type": 3
            }
          ]
        }
      }
    }
  ],
  "configuration_version": "1"
}